…
An example of the resulting data frame:

``` r
btc_index_deviations %>% filter(year(time) > 2011) %>% arrange(time)
```

    ## # A tibble: 359,106 × 6
    ##    time                close length rollavg     diff rel_diff
    ##    <dttm>              <dbl>  <int>   <dbl>    <dbl>    <dbl>
    ##  1 2012-01-01 00:00:00  4.58      1    4.56  0.0242   0.00530
    ##  2 2012-01-01 00:00:00  4.58      7    4.67 -0.0883  -0.0189 
    ##  3 2012-01-01 00:00:00  4.58     30    5.19 -0.607   -0.117  
    ##  4 2012-01-01 01:00:00  4.58      1    4.56  0.0162   0.00356
    ##  5 2012-01-01 01:00:00  4.58      7    4.67 -0.0937  -0.0200 
    ##  6 2012-01-01 01:00:00  4.58     30    5.19 -0.612   -0.118  
    ##  7 2012-01-01 02:00:00  4.58      1    4.57  0.00833  0.00182
    ##  8 2012-01-01 02:00:00  4.58      7    4.68 -0.0990  -0.0212 
    ##  9 2012-01-01 02:00:00  4.58     30    5.20 -0.617   -0.119  
    ## 10 2012-01-01 03:00:00  4.58      1    4.59 -0.0104  -0.00227
    ## # ℹ 359,096 more rows
…
